Plot_ly Project Page - NOAA Analysis
…
weather_sites_df

## # A tibble: 5,478 × 9
##    name          id          date       month       prcp  snow  snwd  tmax  tmin
##    <ord>         <chr>       <date>     <date>     <int> <int> <int> <dbl> <dbl>
##  1 Albany_Mid_NY USW00014735 2006-01-01 2006-01-01    10    23    76   0    -5.6
##  2 Albany_Mid_NY USW00014735 2006-01-02 2006-01-01    20     5    76   3.9  -2.2
##  3 Albany_Mid_NY USW00014735 2006-01-03 2006-01-01   117    53   102   1.1  -5  
##  4 Albany_Mid_NY USW00014735 2006-01-04 2006-01-01     0     3    76   0    -8.9
##  5 Albany_Mid_NY USW00014735 2006-01-05 2006-01-01    10    10    76   3.3   0  
##  6 Albany_Mid_NY USW00014735 2006-01-06 2006-01-01     0     0    76   1.1  -6.7
##  7 Albany_Mid_NY USW00014735 2006-01-07 2006-01-01     0     0    76  -1.7  -8.9
##  8 Albany_Mid_NY USW00014735 2006-01-08 2006-01-01     0     3    76   3.3  -3.3
##  9 Albany_Mid_NY USW00014735 2006-01-09 2006-01-01     0     0    51   6.1  -1.7
## 10 Albany_Mid_NY USW00014735 2006-01-10 2006-01-01     3     3    25   6.7  -5  
## # ℹ 5,468 more rows
…
